<svg width="27" height="26" viewBox="0 0 27 26" fill="none" xmlns="http://www.w3.org/2000/svg">
<rect x="6.14258" y="18.4551" width="18" height="3" rx="1.5" transform="rotate(-45 6.14258 18.4551)" fill="white"/>
<rect x="8.12109" y="6" width="18" height="3" rx="1.5" transform="rotate(45 8.12109 6)" fill="white"/>
</svg>
