<svg width="15" height="11" viewBox="0 0 15 11" fill="none" xmlns="http://www.w3.org/2000/svg">
<path d="M14.1211 4.03516H13.8281V2.7168C13.8281 2.07055 13.3023 1.54492 12.6562 1.54492C12.4303 1.54492 12.2191 1.60912 12.0401 1.72036C11.9203 1.20068 11.4536 0.8125 10.8984 0.8125H10.8981C10.2522 0.8125 9.72622 1.33813 9.72622 1.98438V4.03516H5.27378V1.98438C5.27378 1.33813 4.74781 0.8125 4.10156 0.8125C3.54641 0.8125 3.07972 1.20068 2.9599 1.72036C2.78091 1.60912 2.56966 1.54492 2.34375 1.54492C1.69773 1.54492 1.17188 2.07055 1.17188 2.7168V4.03516H0.878906C0.394363 4.03516 0 4.42952 0 4.91406V6.08594C0 6.57048 0.394363 6.96484 0.878906 6.96484H1.17188V8.2832C1.17188 8.92945 1.69773 9.45508 2.34375 9.45508C2.56966 9.45508 2.78091 9.39088 2.9599 9.27964C3.07972 9.79932 3.54641 10.1875 4.10156 10.1875H4.10191C4.74781 10.1875 5.27378 9.66187 5.27378 9.01562V6.96484H9.72622V9.01562C9.72622 9.66187 10.2522 10.1875 10.8984 10.1875C11.4536 10.1875 11.9203 9.79932 12.0401 9.27964C12.2191 9.39088 12.4303 9.45508 12.6562 9.45508C13.3023 9.45508 13.8281 8.92945 13.8281 8.2832V6.96484H14.1211C14.6056 6.96484 15 6.57048 15 6.08594V4.91406C15 4.42952 14.6056 4.03516 14.1211 4.03516ZM1.17188 6.37891H0.878906C0.71743 6.37891 0.585938 6.24741 0.585938 6.08594V4.91406C0.585938 4.75259 0.71743 4.62109 0.878906 4.62109H1.17188V6.37891ZM2.92969 8.2832C2.92969 8.44491 2.86411 8.59139 2.75803 8.69748C2.65194 8.80357 2.50546 8.86914 2.34375 8.86914C2.02057 8.86914 1.75781 8.60638 1.75781 8.2832V2.7168C1.75781 2.39362 2.02057 2.13086 2.34375 2.13086C2.66693 2.13086 2.92969 2.39362 2.92969 2.7168V8.2832ZM4.68784 9.01562C4.68784 9.33881 4.42474 9.60156 4.10191 9.60156H4.10156C3.77872 9.60156 3.51562 9.33881 3.51562 9.01562V1.98438C3.51562 1.66119 3.77872 1.39844 4.10191 1.39844C4.42474 1.39844 4.68784 1.66119 4.68784 1.98438V9.01562ZM9.7245 5.20703H7.67578C7.51408 5.20703 7.38281 5.33829 7.38281 5.5C7.38281 5.66171 7.51408 5.79297 7.67578 5.79297H9.7245V6.37891H5.27229V4.62109H9.7245V5.20703ZM11.4844 9.01562C11.4844 9.33881 11.2213 9.60156 10.8981 9.60156C10.5753 9.60156 10.3122 9.33881 10.3122 9.01562V5.51499C10.3119 5.5214 10.3114 5.52781 10.3104 5.53399V5.46601C10.3114 5.47219 10.3119 5.4786 10.3122 5.48501V1.98438C10.3122 1.66119 10.5753 1.39844 10.8981 1.39844H10.8984C11.2213 1.39844 11.4844 1.66119 11.4844 1.98438V9.01562ZM13.2422 8.2832C13.2422 8.60638 12.9794 8.86914 12.6562 8.86914C12.3331 8.86914 12.0703 8.60638 12.0703 8.2832V2.7168C12.0703 2.39362 12.3331 2.13086 12.6562 2.13086C12.9794 2.13086 13.2422 2.39362 13.2422 2.7168V8.2832ZM14.4141 6.08594C14.4141 6.24741 14.2826 6.37891 14.1211 6.37891H13.8281V4.62109H14.1211C14.2826 4.62109 14.4141 4.75259 14.4141 4.91406V6.08594Z" fill="#575957"/>
</svg>
