<svg width="13" height="14" viewBox="0 0 13 14" fill="none" xmlns="http://www.w3.org/2000/svg">
<path fill-rule="evenodd" clip-rule="evenodd" d="M12.0761 10.2373C14.875 3.49997 9.63745 0.528687 6.47144 0.528687C2.9033 0.528687 0 3.43199 0 7.00012C0 10.5683 2.903 13.4713 6.47144 13.4713C8.77424 13.4713 10.9219 12.2318 12.0761 10.2373ZM6.47144 12.295C8.35544 12.295 10.1128 11.2805 11.0577 9.64785C13.125 3.49997 8.98602 1.70585 6.47144 1.70585C3.55205 1.70585 1.17657 4.08104 1.17657 7.00072C1.17657 9.9198 3.55205 12.295 6.47144 12.295Z" fill="#7F6858"/>
<path d="M6.47181 1.99963C6.14684 1.99963 5.88352 2.26295 5.88352 2.58792V6.15754C5.61753 6.34401 5.44238 6.65141 5.44238 7.0005C5.44238 7.56824 5.90437 8.03023 6.47211 8.03023C6.62759 8.03023 6.77414 7.99299 6.90639 7.93074L8.95273 9.11178C9.04567 9.16569 9.14635 9.19101 9.24643 9.19101C9.44957 9.19101 9.64736 9.08557 9.75637 8.89672C9.91871 8.61583 9.8225 8.25571 9.54072 8.09337L7.4923 6.91055C7.46489 6.59958 7.30315 6.32792 7.06069 6.15814V2.58792C7.06009 2.26325 6.79648 1.99963 6.47181 1.99963ZM6.47181 7.44135C6.22845 7.44135 6.03067 7.24327 6.03067 7.0005C6.03067 6.75745 6.22875 6.55937 6.47181 6.55937C6.71487 6.55937 6.91295 6.75745 6.91295 7.0005C6.91295 7.24327 6.71487 7.44135 6.47181 7.44135Z" fill="#7F6858"/>
</svg>
