<svg xmlns="http://www.w3.org/2000/svg" width="12.024" height="9.622" viewBox="0 0 12.024 9.622">
  <g id="download" transform="translate(14.024 -5.996) rotate(90)">
    <path id="Path_64052" data-name="Path 64052" d="M10.807,2a.8.8,0,0,0-.8.8v8.486L7.369,8.643A.8.8,0,0,0,6.232,9.781l4.006,4.006a.8.8,0,0,0,1.138,0l4.006-4.006a.8.8,0,1,0-1.138-1.138l-2.636,2.644V2.8a.8.8,0,0,0-.8-.8Z" transform="translate(0 0)" fill="#03af80"/>
  </g>
</svg>
