<svg width="15" height="9" viewBox="0 0 15 9" fill="none" xmlns="http://www.w3.org/2000/svg">
<path d="M6.9147 0.333148L0.239632 7.00834C0.0851213 7.16273 0 7.36882 0 7.58858C0 7.80833 0.0851213 8.01443 0.239632 8.16882L0.731092 8.6604C1.05133 8.98027 1.57182 8.98027 1.89157 8.6604L7.49689 3.05508L13.1084 8.66662C13.2629 8.82101 13.4689 8.90625 13.6885 8.90625C13.9084 8.90625 14.1144 8.82101 14.269 8.66662L14.7604 8.17504C14.9149 8.02053 15 7.81455 15 7.5948C15 7.37504 14.9149 7.16895 14.7604 7.01456L8.0792 0.333148C7.9242 0.178393 7.71725 0.0933943 7.49726 0.0938816C7.2764 0.0933943 7.06958 0.178393 6.9147 0.333148Z" fill="#CBCCD0"/>
</svg>
